{
  "project_info": {
    "project_number": "452489940672",
    "project_id": "fir-loginusingkt",
    "storage_bucket": "fir-loginusingkt.appspot.com"
  },
  "client": [
    {
      "client_info": {
        "mobilesdk_app_id": "1:452489940672:android:f264c0709bbbbb76d1a725",
        "android_client_info": {
          "package_name": "com.baskgroup.android.firebaseloginusingkt"
        }
      },
      "oauth_client": [
        {
          "client_id": "452489940672-vjmiabolr1rjsk8t24fjgj2lgpk95fir.apps.googleusercontent.com",
          "client_type": 3
        }
      ],
      "api_key": [
        {
          "current_key": "AIzaSyBM4Kj3IQTMGEWwWGi1mY-wrJKqJb37RX8"
        }
      ],
      "services": {
        "appinvite_service": {
          "other_platform_oauth_client": [
            {
              "client_id": "452489940672-vjmiabolr1rjsk8t24fjgj2lgpk95fir.apps.googleusercontent.com",
              "client_type": 3
            }
          ]
        }
      }
    }
  ],
  "configuration_version": "1"
}